<?xml version="1.0" encoding="utf-8"?>
<!-- Generator: Adobe Illustrator 16.0.3, SVG Export Plug-In . SVG Version: 6.00 Build 0)  -->
<!DOCTYPE svg PUBLIC "-//W3C//DTD SVG 1.1//EN" "http://www.w3.org/Graphics/SVG/1.1/DTD/svg11.dtd">
<svg version="1.1" id="Layer_1" xmlns="http://www.w3.org/2000/svg" xmlns:xlink="http://www.w3.org/1999/xlink" x="0px" y="0px"
	 width="300.92px" height="126px" viewBox="0 0 300.92 126" enable-background="new 0 0 300.92 126" xml:space="preserve">
<g>
	<g id="expanded_3_">
		<path fill="#B5D2D6" d="M44.272,89.236h-8.07V60.672L26.58,89.236h-6.989L10.07,60.672v28.564H2V44.668h10.804L23.136,76.44
			l10.365-31.772h10.771V89.236z"/>
		<path fill="#CCE6E8" d="M66.715,89.946c-2.814,0-5.206-0.282-7.175-0.845c-1.969-0.563-3.619-1.322-4.947-2.279
			c-1.328-0.956-2.375-2.081-3.139-3.376c-0.765-1.293-1.34-2.672-1.723-4.136c-0.383-1.463-0.624-2.971-0.726-4.524
			c-0.101-1.553-0.152-3.083-0.152-4.592V44.668h8.306v25.458c0,2.543,0.215,4.608,0.643,6.196c0.427,1.586,1.046,2.824,1.856,3.714
			s1.807,1.498,2.989,1.823c1.182,0.328,2.537,0.489,4.069,0.489c1.552,0,2.921-0.162,4.102-0.489
			c1.183-0.325,2.171-0.939,2.971-1.839c0.798-0.901,1.402-2.145,1.807-3.733c0.405-1.585,0.608-3.64,0.608-6.161V44.668h8.373
			v25.525c0,3.106-0.266,5.881-0.794,8.322c-0.53,2.443-1.469,4.508-2.82,6.196s-3.18,2.983-5.486,3.884
			C73.168,89.496,70.248,89.946,66.715,89.946z"/>
	</g>
	<g id="expanded_4_">
		<path fill="#00D7C0" d="M214.399,89.848h-8.272V45.28h8.272V89.848z"/>
		<linearGradient id="SVGID_1_" gradientUnits="userSpaceOnUse" x1="219.959" y1="67.564" x2="298.4004" y2="67.564">
			<stop  offset="0" style="stop-color:#00D7C0"/>
			<stop  offset="0.3119" style="stop-color:#04BFB7"/>
			<stop  offset="0.748" style="stop-color:#09A3AD"/>
			<stop  offset="1" style="stop-color:#0B98A9"/>
		</linearGradient>
		<polygon fill="url(#SVGID_1_)" points="288.338,45.28 276.621,63.31 264.839,45.28 255.986,45.28 254.777,45.28 219.959,45.28 
			219.959,52.943 233.77,52.943 233.77,89.848 242.108,89.848 242.108,52.943 255.986,52.943 255.986,47.048 272.435,71.108 
			272.435,89.848 280.775,89.848 280.775,71.108 298.4,45.28 		"/>
	</g>
	<path fill="#1098A9" d="M130.676,71.399v5.517v-3.911v-3.91v-3.913h-0.884h-0.884h-0.884h-0.884V60.86v-4.322v-4.322v-4.322h-0.131
		h-0.131h-0.131h-0.131v4.322v4.322v4.322v4.322h-2.095h-2.095h-2.095h-2.095v2.091v2.089v2.089v2.09l-0.598-0.25l-0.597-0.25
		l-0.598-0.25l-0.598-0.25h-0.679h-0.679h-0.679h-0.68h-0.679h-0.679h-0.68h-0.679l-0.679,0.285l-0.68,0.284l-0.679,0.285
		l-0.679,0.282v0.284v0.285v0.285v0.284v0.285v0.285v0.284v0.282v0.139v0.139v0.137v0.139l0.679,0.145l0.678,0.146l0.678,0.147
		l0.679,0.146v0.168v0.17v0.167v0.17h-1.056h-1.055h-1.055h-1.056v0.123v0.123v0.123v0.123h-0.605h-0.606h-0.606h-0.606v0.201v0.201
		v0.198v0.201l3.299,0.219h-0.909h-0.908h-0.909v5.683v5.685v7.807l0,0h0.909h0.908h0.909l-3.299-0.219h0.606h0.606h0.606h0.605
		h1.514h1.514h1.514h1.514h0.908h0.909h0.909h0.908h0.589h0.589h0.589h0.59v2.439v2.437v2.439v-5.813h2.601l2.601,6.704h2.601h2.601
		v0.186v0.184v0.187v0.184v0.743v0.743v0.741v0.743h0.269h0.269h0.268h0.269h0.269h0.268h0.269h0.269h0.268h0.269h0.269l0.268,1.047
		h0.269h0.269h0.268h0.269h0.269h0.268h0.269h0.269h0.268h0.269h0.269h0.268h0.269h0.269h0.268h0.269h0.269h0.268h0.268h0.269v0.252
		v0.251v0.25v0.252h4.627h4.627h4.628h4.626v-0.131v-0.131v-0.131v-0.131h1.436h1.438h1.437h1.437h2.095h2.096l2.095-4.191h2.096
		h1.833h1.833h1.833h1.833v-3.241v5.011v-3.239v-3.241h0.17h0.168h0.17h0.17h0.168h0.17h0.17h0.168h0.17h0.17h0.168h0.17h0.17h0.168
		h0.17h0.17h0.168h0.17h0.17h0.167h0.17h0.17h0.168h0.17h0.17h0.168h0.17h0.17h0.168h0.17h0.17h0.168h0.169h0.17h0.168h0.17h0.17
		h0.167h0.17h0.17h0.168h0.17h0.17h0.168h0.17h0.17h0.167h0.17h0.17h0.168h0.17h0.17h0.168h0.17h0.17h0.167h0.17h0.17h0.168h0.169
		h0.17h0.168h0.17h0.17v-0.225v-0.223v-0.226v-0.223v-0.225v-0.226v-0.223v-0.225v-0.225v-0.226v-0.223v-0.225v-0.225v-0.223v-0.225
		v-0.223v-0.225v-0.225V98.51v-0.225V98.06v-0.226v-0.223v-0.225l-0.786-0.225l-0.786-0.223l-0.785-0.225l-0.786-0.223v-0.225V96.04
		v-0.223v-0.225v-0.225v-0.225v-0.223v-0.225v-0.225v-0.223v-0.225v-0.223v-0.225v-0.225v-0.223v-0.225v-0.226v-0.225v-0.223v-0.225
		v-0.226v-0.223v-0.225v-0.223v-0.225v-0.225v-0.223v-0.225v-0.264v-0.264v-0.262v-0.264h-0.176h-0.174h-0.174h-0.177v-0.186v-0.185
		v-0.186v-0.184h-0.163h-0.164h-0.164h-0.163l-0.229-0.393l-0.229-0.393l-0.229-0.393l-0.229-0.393l-0.229-0.393l-0.229-0.393
		l-0.229-0.393l-0.229-0.393l-0.109,0.184l-0.108,0.187l-0.11,0.184l-0.109,0.186l-0.109,0.186l-0.11,0.185l-0.108,0.186
		l-0.108,0.186h-0.17h-0.17h-0.168h-0.17h-0.17h-0.168h-0.17h-0.17h-0.168h-0.17h-0.17h-0.167h-0.17h-0.17h-0.168h-0.17
		l-0.131-0.186l-0.131-0.186l-0.131-0.185l-0.131-0.186l-0.131-0.186l-0.131-0.184l-0.131-0.187l-0.131-0.184l-0.207,0.393
		l-0.208,0.393l-0.207,0.393l-0.207,0.393l-0.209,0.393l-0.207,0.393l-0.207,0.393l-0.209,0.393h-0.174h-0.174h-0.176h-0.174v0.184
		v0.186v0.185v0.186h-0.164h-0.164h-0.164h-0.164v-3.788v-3.788V77.79v-3.788h-1.833H170.4h-1.834h-1.833V73.13v-0.874v-0.874
		v-0.874h-2.095h-2.095h-2.095h-2.095v0.874v0.874v0.874v0.872h-1.96h-4.647v11.525h-1.236V71.284v-2.718v-2.717v-2.717h-0.393
		h-0.393h-0.393h-0.393v-0.305v-0.305v-0.305v-0.305l-1.254-2.711l-1.254-2.709l-1.256-2.711l-1.254-2.709v-0.287v-0.287v-0.284
		v-0.287h-0.294h-0.295h-0.295h-0.295v-0.294v-0.294v-0.295v-0.294h-0.37h-0.372h-0.37h-0.372h-0.371h-0.37h-0.372h-0.37v0.294
		v0.295v0.294v0.294h-0.295h-0.295h-0.295h-0.294v0.287v0.284v0.287v0.287l-1.255,2.709l-1.256,2.711l-1.254,2.709l-1.256,2.711
		v0.305v0.305v0.305v0.305h-0.393h-0.393h-0.393h-0.393v4.299v4.297v4.297v-4.626H130.676z"/>
	<path fill="#00D7C0" d="M200.527,77.341v15.715l-0.746,1.441c-5.294,9.143-12.534,14.477-21.415,19.603
		c-8.883,5.124-19.082,7.964-29.634,7.964c-16.356,0-31.187-6.654-41.93-17.396C96.06,93.926,89.407,79.095,89.407,62.739
		s6.653-31.188,17.395-41.931c10.743-10.743,25.574-17.396,41.93-17.396c6.572,0,12.971,1.052,19.03,3.101
		s11.777,5.094,16.984,9.079l-4.455,5.824l-4.457,5.826c-3.919-2.996-8.22-5.288-12.779-6.829
		c-4.559-1.541-9.376-2.333-14.323-2.333c-12.312,0-23.477,5.007-31.563,13.094c-8.086,8.087-13.094,19.251-13.094,31.564
		s5.008,23.477,13.094,31.564c8.087,8.085,19.251,13.094,31.563,13.094c7.943,0,15.621-2.138,22.31-5.998
		c6.688-3.859,11.521-8.073,15.505-14.957L200.527,77.341z"/>
</g>
</svg>
